# Blender v2.76 (sub 0) OBJ File: ''
# www.blender.org
mtllib torso.mtl
o torso
v 43.268539 130.697510 38.853161
v 43.268539 130.697510 -121.146835
v -101.731461 130.697510 -121.146835
v -101.731461 130.697510 38.853161
v 23.268539 63.358810 -101.146843
v -81.731461 63.358810 -101.146843
v -81.731461 63.358810 18.853157
v 23.268539 63.358810 18.853157
v 43.268539 -46.432892 38.853153
v -101.731461 -46.432892 38.853153
v -101.731461 -46.432892 -121.146851
v 43.268539 -46.432892 -121.146851
v 23.268539 3.308304 18.853153
v -81.731461 3.308304 18.853153
v -81.731461 3.308304 -101.146851
v 23.268539 3.308304 -101.146851
vn 0.638500 0.429600 -0.638500
vn -0.638500 0.429600 -0.638500
vn -0.638500 0.429600 0.638500
vn 0.690200 -0.217300 -0.690200
vn -0.690200 -0.217300 -0.690200
vn -0.690200 -0.217300 0.690200
vn 0.690200 -0.217300 0.690200
vn 0.638500 0.429600 0.638500
vn -0.652500 -0.385400 0.652500
vn -0.652500 -0.385400 -0.652500
vn 0.652500 -0.385400 -0.652500
vn 0.652500 -0.385400 0.652500
vn 0.676800 0.289800 0.676800
vn -0.676800 0.289800 0.676800
vn -0.676800 0.289800 -0.676800
vn 0.676800 0.289800 -0.676800
usemtl None
s 1
f 2//1 3//2 4//3
f 2//1 5//4 6//5
f 3//2 6//5 7//6
f 4//3 7//6 8//7
f 1//8 8//7 5//4
f 10//9 11//10 12//11
f 9//12 13//13 14//14
f 11//10 15//15 16//16
f 10//9 14//14 15//15
f 12//11 16//16 13//13
f 7//6 14//14 13//13
f 6//5 15//15 14//14
f 5//4 16//16 15//15
f 8//7 13//13 16//16
f 1//8 2//1 4//3
f 3//2 2//1 6//5
f 4//3 3//2 7//6
f 1//8 4//3 8//7
f 2//1 1//8 5//4
f 9//12 10//9 12//11
f 10//9 9//12 14//14
f 12//11 11//10 16//16
f 11//10 10//9 15//15
f 9//12 12//11 13//13
f 8//7 7//6 13//13
f 7//6 6//5 14//14
f 6//5 5//4 15//15
f 5//4 8//7 16//16
