# Blender v2.76 (sub 0) OBJ File: ''
# www.blender.org
mtllib limb.mtl
o limb
v -72.841370 -324.989349 51.560577
v -72.841370 -298.646454 -56.315018
v 10.715431 -298.646454 -56.315018
v 10.715431 -324.989349 51.560577
v -72.841370 -225.066559 51.560593
v 10.715431 -225.066559 51.560593
v 10.715431 -225.066559 -56.315018
v -72.841370 -225.066559 -56.315018
v -70.347168 -40.996246 42.830780
v -70.347168 -211.526764 42.830780
v 5.726936 -211.526764 42.830780
v 5.726936 -40.996246 42.830780
v 5.726936 -211.526764 -51.326508
v 5.726936 -40.996246 -51.326508
v -70.347168 -211.526764 -51.326508
v -70.347168 -40.996246 -51.326508
v -0.606964 -24.490662 28.488983
v -63.487965 -24.490662 28.488983
v -63.487965 -24.490646 -41.973114
v -0.606964 -24.490646 -41.973114
v -70.347168 -40.996246 28.026688
v -63.487965 -24.490662 23.475983
v -0.606964 -24.490662 23.475983
v 5.726936 -40.996246 28.026688
v 5.726936 -40.996246 -40.157608
v -0.606964 -24.490646 -36.892120
v -63.487965 -24.490646 -36.892120
v -70.347168 -40.996246 -40.157608
v -38.266266 -51.381439 108.679016
v -38.266266 -19.087372 119.443695
v -38.266266 18.589035 117.290802
v -38.266266 44.424332 123.749603
v -38.266266 83.177338 112.984894
v -38.266266 109.012634 86.073090
v -38.266266 -211.775665 78.537781
v -38.266266 -205.316864 97.914276
v -38.266266 -147.187439 115.137756
v -38.266266 -127.810944 107.602478
v -28.266266 -51.381439 108.679016
v -28.266266 -127.810944 107.602478
v -28.266266 -147.187439 115.137756
v -28.266266 -205.316864 97.914276
v -28.266266 -211.775665 78.537781
v -28.266266 109.012634 86.073090
v -28.266266 83.177338 112.984894
v -28.266266 44.424332 123.749603
v -28.266266 18.589035 117.290802
v -28.266266 -19.087372 119.443695
v -43.266266 101.009033 134.144897
v -43.266266 124.083130 115.137787
v -43.266266 115.471436 98.990814
v -43.266266 76.718430 93.608398
v -43.266266 15.359634 61.314285
v -43.266266 -10.475662 65.620209
v -43.266266 -4.016769 37.631882
v -43.266266 -126.442444 37.641190
v -43.266266 -277.156036 36.879990
v -43.266266 -279.439636 60.476486
v -43.266266 -274.872559 81.789581
v -43.266266 -236.813538 117.564972
v -43.266266 -168.307343 119.848572
v -43.266266 -132.531952 72.655365
v -43.266266 -25.667374 75.276703
v -43.266266 -21.897064 86.627106
v -43.266266 -12.001770 106.417816
v -43.266266 42.803238 106.417816
v -43.266266 64.472427 115.876587
v -43.266266 70.561829 128.816589
v -23.266266 101.009033 134.144897
v -23.266266 70.561829 128.816589
v -23.266266 64.472427 115.876587
v -23.266266 42.803238 106.417816
v -23.266266 -12.001770 106.417816
v -23.266266 -21.897064 86.627106
v -23.266266 -25.667374 75.276703
v -23.266266 -132.531952 72.655365
v -23.266266 -168.307343 119.848572
v -23.266266 -236.813538 117.564972
v -23.266266 -274.872559 81.789581
v -23.266266 -279.439636 60.476486
v -23.266266 -277.156036 36.879990
v -23.266266 -126.442444 37.641190
v -23.266266 -4.016769 37.631882
v -23.266266 -10.475662 65.620209
v -23.266266 15.359634 61.314285
v -23.266266 76.718430 93.608398
v -23.266266 115.471436 98.990814
v -23.266266 124.083130 115.137787
vt 0.000000 1.000000
vt 1.000000 1.000000
vt 1.000000 0.000000
vt 0.000000 0.000000
vt 31.703199 35.230999
vt 1.937600 -0.645900
vt -20.668301 159.748199
vt -28.203600 -161.039993
vt 10.549400 69.324699
vt 6.243500 133.912903
vt 17.008200 95.160004
vt 12.702300 31.648199
vt 0.861100 -77.075302
vt 8.396400 -96.451797
vt -8.827100 -154.581207
vt -0.323600 38.733898
vt -0.323600 93.538803
vt -45.427101 66.095299
vt -31.464701 25.068300
vt -69.109497 46.718800
vt -41.121201 40.259998
vt -13.133000 127.454102
vt -7.750600 166.207108
vt 8.396400 174.818802
vt 27.403500 151.744705
vt 22.075199 121.297501
vt 9.135200 115.208099
vt -20.114300 28.838600
vt -34.085999 -81.796303
vt 13.107200 -117.571701
vt 10.823600 -186.077896
vt -24.951799 -224.136902
vt -46.264801 -228.703995
vt -69.861397 -226.420395
vt -69.100197 -75.706802
vn -0.591000 -0.498200 -0.634500
vn 0.591000 -0.498200 -0.634500
vn 0.565800 -0.648500 0.509200
vn -0.565800 -0.648500 0.509200
vn 0.666100 0.274300 0.693600
vn -0.682600 0.173600 -0.709800
vn -0.659100 0.244600 0.711100
vn -0.744100 0.267800 0.612100
vn 0.703100 0.345100 0.621700
vn 0.651300 0.315700 0.690000
vn 0.681400 0.267200 -0.681400
vn 0.672800 0.261500 -0.692100
vn -0.718900 0.197500 -0.666500
vn -0.673600 0.267000 -0.689200
vn -0.652100 0.319500 0.687500
vn 0.690400 0.216300 -0.690400
vn 0.478800 0.818100 0.318500
vn -0.467200 0.824700 0.318700
vn -0.455900 0.794500 -0.401200
vn -0.446800 0.570800 -0.688900
vn 0.455500 0.566600 -0.686600
vn 0.606100 0.676900 -0.417700
vn 0.580700 0.696700 0.421300
vn 0.454400 0.593700 0.664100
vn -0.445300 0.598100 0.666300
vn 0.467100 0.788300 -0.400500
vn -0.571200 0.711000 0.410100
vn -0.595900 0.692500 -0.406700
vn 0.541100 0.193800 0.818300
vn -0.548100 0.773300 -0.318900
vn -0.615100 0.018500 -0.788200
vn 0.754400 -0.017200 -0.656100
vn 0.548100 0.773300 -0.318900
vn -0.588500 -0.197000 0.784100
vn -0.652200 0.388700 0.650800
vn 0.652200 0.388700 0.650800
vn -0.653900 0.009800 0.756500
vn 0.653900 0.009800 0.756500
vn 0.580000 -0.317900 0.750000
vn -0.667100 -0.098300 0.738500
vn 0.667100 -0.098300 0.738500
vn 0.589100 0.043300 0.806900
vn -0.052100 0.997300 -0.052400
vn -0.641000 0.031800 0.766900
vn 0.641000 0.031800 0.766900
vn -0.811400 -0.166000 0.560400
vn 0.615100 0.018500 -0.788200
vn -0.605700 -0.418300 0.676800
vn -0.542900 0.640100 -0.543600
vn -0.641800 0.121900 -0.757100
vn 0.172700 -0.655400 -0.735300
vn 0.566300 0.645000 -0.513100
vn 0.091600 -0.147700 0.984800
vn 0.641800 0.121900 -0.757100
vn 0.710900 0.393200 -0.583100
vn -0.150700 -0.934400 -0.322900
vn -0.617800 0.450100 -0.644800
vn 0.617800 0.450100 -0.644800
vn -0.588500 0.793000 0.157400
vn 0.588500 0.793000 0.157400
vn -0.624000 0.199300 0.755600
vn 0.624000 0.199300 0.755600
vn -0.616600 -0.477800 0.625700
vn 0.616600 -0.477800 0.625700
vn 0.525200 -0.850800 0.015900
vn -0.155900 0.576300 0.802200
vn 0.605700 -0.418300 0.676800
vn -0.691400 -0.667600 0.276100
vn 0.691400 -0.667600 0.276100
vn 0.451700 -0.871100 0.192800
vn 0.494700 0.198500 0.846100
vn -0.124000 0.979200 -0.160800
vn -0.616800 0.338400 0.710700
vn 0.616800 0.338400 0.710700
vn -0.635600 -0.296300 0.712900
vn 0.635600 -0.296300 0.712900
vn -0.645800 -0.665000 0.375200
vn 0.645800 -0.665000 0.375200
vn -0.674200 -0.737300 0.042300
vn 0.674200 -0.737300 0.042300
vn -0.582300 -0.544900 -0.603300
vn 0.582300 -0.544900 -0.603300
vn 0.734900 0.095000 -0.671500
vn -0.035700 -0.998900 0.030500
vn -0.566300 0.645000 -0.513100
vn 0.449600 0.841600 -0.299200
vn -0.079300 0.946500 0.312800
vn 0.811400 -0.166000 0.560400
usemtl None
s 1
f 2 3 4
f 1 4 6
f 6 4 3
f 3 2 8
f 2 1 5
f 10 11 12
f 11 13 14
f 13 15 16
f 15 10 9
f 5 6 11
f 7 13 11
f 8 15 13
f 8 5 10
f 12 17 18
f 14 16 19
f 22 23 24
f 25 26 27
f 26 20 19
f 25 14 20
f 28 27 19
f 22 18 17
f 21 9 18
f 24 23 17
f 28 21 24
f 29 34 35
f 39 44 47
f 44 34 33
f 45 33 32
f 46 32 31
f 47 31 30
f 48 30 29
f 39 29 38
f 40 38 37
f 41 37 36
f 43 35 34
f 65 66 53
f 75 83 84
f 85 53 52
f 86 52 51
f 87 51 50
f 88 50 49
f 69 49 68
f 70 68 67
f 71 67 66
f 73 65 64
f 74 64 63
f 75 63 62
f 76 62 61
f 77 61 60
f 78 60 59
f 79 59 58
f 80 58 57
f 81 57 56
f 82 56 55
f 83 55 54
f 72 66 65
f 84 54 53
f 1 2 4
f 5 1 6
f 7 6 3
f 7 3 8
f 8 2 5
f 9 10 12
f 12 11 14
f 14 13 16
f 16 15 9
f 10 5 11
f 6 7 11
f 7 8 13
f 15 8 10
f 9 12 18
f 20 14 19
f 21 22 24
f 28 25 27
f 27 26 19
f 26 25 20
f 16 28 19
f 23 22 17
f 22 21 18
f 12 24 17
f 25 28 24
f 29 30 31
f 36 37 35
f 31 32 33
f 37 38 35
f 29 31 34
f 33 34 31
f 35 38 29
f 40 41 43
f 47 48 39
f 39 40 43
f 42 43 41
f 44 45 47
f 39 43 44
f 45 46 47
f 45 44 33
f 46 45 32
f 47 46 31
f 48 47 30
f 39 48 29
f 40 39 38
f 41 40 37
f 42 41 36
f 44 43 34
f 68 49 52
f 50 51 49
f 52 66 67
f 54 55 63
f 56 57 62
f 58 59 60
f 60 61 62
f 63 64 54
f 58 60 57
f 64 65 54
f 60 62 57
f 55 56 63
f 51 52 49
f 67 68 52
f 65 53 54
f 56 62 63
f 52 53 66
f 88 69 87
f 72 73 85
f 69 70 86
f 73 74 84
f 70 71 86
f 86 87 69
f 84 85 73
f 82 83 75
f 80 81 78
f 78 79 80
f 76 77 78
f 71 72 86
f 76 78 81
f 86 72 85
f 75 76 82
f 81 82 76
f 84 74 75
f 86 85 52
f 87 86 51
f 88 87 50
f 69 88 49
f 70 69 68
f 71 70 67
f 72 71 66
f 74 73 64
f 75 74 63
f 76 75 62
f 77 76 61
f 78 77 60
f 79 78 59
f 80 79 58
f 81 80 57
f 82 81 56
f 83 82 55
f 84 83 54
f 73 72 65
f 85 84 53
